sim_output/fpu_testbench.vcd
$date
	Mon Sep 22 23:42:19 2025
$end
$version
	Icarus Verilog
$end
$timescale
	1ps
$end
$scope module tb_fputop $end
$var wire 64 ! wrdata [63:0] $end
$var wire 9 " wraddr [8:0] $end
$var wire 64 # result [63:0] $end
$var wire 3 $ flags [2:0] $end
$var wire 3 % fex [2:0] $end
$var wire 9 & draddr [8:0] $end
$var wire 32 ' bus1 [31:0] $end
$var reg 1 ( clk $end
$var reg 64 ) dbus [63:0] $end
$var reg 24 * ins [23:0] $end
$var reg 1 + rst $end
$var integer 32 , fail_count [31:0] $end
$var integer 32 - pass_count [31:0] $end
$var integer 32 . test_count [31:0] $end
$scope module dut $end
$var wire 1 ( clk $end
$var wire 32 / dbus_high [31:0] $end
$var wire 32 0 dbus_low [31:0] $end
$var wire 1 1 hazard_detected $end
$var wire 64 2 inRfile [63:0] $end
$var wire 24 3 ins [23:0] $end
$var wire 1 4 precision_mismatch $end
$var wire 1 + rst $end
$var wire 32 5 wrdata_low [31:0] $end
$var wire 32 6 wrdata_high [31:0] $end
$var wire 5 7 rsel2 [4:0] $end
$var wire 5 8 rsel1 [4:0] $end
$var wire 1 9 rs2_is_double $end
$var wire 64 : rs2 [63:0] $end
$var wire 1 ; rs1_is_double $end
$var wire 64 < rs1 [63:0] $end
$var wire 32 = result_low [31:0] $end
$var wire 32 > result_high [31:0] $end
$var wire 64 ? mul64_result [63:0] $end
$var wire 32 @ mul32_result [31:0] $end
$var wire 1 A issd $end
$var wire 1 B isld $end
$var wire 1 C iscmp $end
$var wire 1 D isSub $end
$var wire 1 E isMul $end
$var wire 1 F isDouble $end
$var wire 1 G isAdd $end
$var wire 9 H imm [8:0] $end
$var wire 3 I fex_mul64 [2:0] $end
$var wire 3 J fex_mul32 [2:0] $end
$var wire 3 K fex_add64 [2:0] $end
$var wire 3 L fex_add32 [2:0] $end
$var wire 2 M dest_sel [1:0] $end
$var wire 5 N dest [4:0] $end
$var wire 64 O dbus [63:0] $end
$var wire 32 P bus1 [31:0] $end
$var wire 64 Q add64_result [63:0] $end
$var wire 32 R add32_result [31:0] $end
$var wire 1 S a_lt_bs $end
$var wire 1 T a_lt_bd $end
$var wire 1 U a_gt_bs $end
$var wire 1 V a_gt_bd $end
$var wire 1 W a_eq_bs $end
$var wire 1 X a_eq_bd $end
$var reg 1 Y add32_valid $end
$var reg 1 Z add64_valid $end
$var reg 1 [ double $end
$var reg 9 \ draddr [8:0] $end
$var reg 3 ] fex [2:0] $end
$var reg 3 ^ flags [2:0] $end
$var reg 1 _ inv $end
$var reg 1 ` inx $end
$var reg 1 a mul32_valid $end
$var reg 1 b mul64_valid $end
$var reg 1 c ovf $end
$var reg 5 d pending_dest_stage1 [4:0] $end
$var reg 5 e pending_dest_stage2 [4:0] $end
$var reg 5 f pending_dest_stage3 [4:0] $end
$var reg 5 g pending_dest_stage4 [4:0] $end
$var reg 5 h pending_dest_stage5 [4:0] $end
$var reg 1 i pending_double_stage1 $end
$var reg 1 j pending_double_stage2 $end
$var reg 1 k pending_double_stage3 $end
$var reg 1 l pending_double_stage4 $end
$var reg 1 m pending_double_stage5 $end
$var reg 1 n pending_mul_stage1 $end
$var reg 1 o pending_mul_stage2 $end
$var reg 1 p pending_mul_stage3 $end
$var reg 1 q pending_mul_stage4 $end
$var reg 1 r pending_mul_stage5 $end
$var reg 1 s pending_write_stage1 $end
$var reg 1 t pending_write_stage2 $end
$var reg 1 u pending_write_stage3 $end
$var reg 1 v pending_write_stage4 $end
$var reg 1 w pending_write_stage5 $end
$var reg 32 x reg_precision_map [31:0] $end
$var reg 64 y result [63:0] $end
$var reg 1 z unf $end
$var reg 9 { wraddr [8:0] $end
$var reg 64 | wrdata [63:0] $end
$scope module add32 $end
$var wire 32 } a [31:0] $end
$var wire 32 ~ b [31:0] $end
$var wire 1 ( clk $end
$var wire 8 !" expa_wire_s0 [7:0] $end
$var wire 8 "" expb_wire_s0 [7:0] $end
$var wire 1 #" isinf_a $end
$var wire 1 $" isinf_b $end
$var wire 1 %" isnan_a $end
$var wire 1 &" isnan_b $end
$var wire 1 '" issubnorm_a $end
$var wire 1 (" issubnorm_b $end
$var wire 1 )" iszero_a $end
$var wire 1 *" iszero_b $end
$var wire 23 +" mana_wire_s0 [22:0] $end
$var wire 23 ," manb_wire_s0 [22:0] $end
$var wire 1 + rst $end
$var wire 1 -" sign_a_wire_s0 $end
$var wire 1 ." sign_b_wire_s0 $end
$var wire 1 Y valid $end
$var reg 1 /" done $end
$var reg 8 0" exp_normalized_s3 [7:0] $end
$var reg 8 1" exp_result_s2 [7:0] $end
$var reg 8 2" expa_s0 [7:0] $end
$var reg 8 3" expb_s0 [7:0] $end
$var reg 9 4" expdiff_s1 [8:0] $end
$var reg 3 5" fex [2:0] $end
$var reg 23 6" final_mantissa [22:0] $end
$var reg 1 7" guard_bit $end
$var reg 32 8" input_a_s0 [31:0] $end
$var reg 32 9" input_b_s0 [31:0] $end
$var reg 29 :" man_normalized_s3 [28:0] $end
$var reg 29 ;" man_result_s2 [28:0] $end
$var reg 26 <" mana_full [25:0] $end
$var reg 28 =" mana_imm_s1 [27:0] $end
$var reg 23 >" mana_s0 [22:0] $end
$var reg 26 ?" manb_full [25:0] $end
$var reg 28 @" manb_imm_s1 [27:0] $end
$var reg 23 A" manb_s0 [22:0] $end
$var reg 8 B" max_exp_s1 [7:0] $end
$var reg 1 C" round_bit $end
$var reg 1 D" round_up $end
$var reg 1 E" sign_a $end
$var reg 1 F" sign_a_s1 $end
$var reg 1 G" sign_b $end
$var reg 1 H" sign_b_s1 $end
$var reg 1 I" sign_result_s2 $end
$var reg 1 J" sign_result_s3 $end
$var reg 1 K" special_case_s0 $end
$var reg 1 L" special_case_s1 $end
$var reg 1 M" special_case_s2 $end
$var reg 1 N" special_case_s3 $end
$var reg 3 O" special_fex_s0 [2:0] $end
$var reg 3 P" special_fex_s1 [2:0] $end
$var reg 3 Q" special_fex_s2 [2:0] $end
$var reg 3 R" special_fex_s3 [2:0] $end
$var reg 32 S" special_result_s0 [31:0] $end
$var reg 32 T" special_result_s1 [31:0] $end
$var reg 32 U" special_result_s2 [31:0] $end
$var reg 32 V" special_result_s3 [31:0] $end
$var reg 1 W" sticky_bit $end
$var reg 32 X" sum [31:0] $end
$var reg 1 Y" valid_s1 $end
$var reg 1 Z" valid_s2 $end
$var reg 1 [" valid_s3 $end
$var reg 1 \" valid_s4 $end
$scope function count_leading_zeros $end
$var reg 1 ]" found $end
$var reg 29 ^" mantissa [28:0] $end
$var integer 32 _" j [31:0] $end
$upscope $end
$upscope $end
$scope module add64 $end
$var wire 64 `" b [63:0] $end
$var wire 1 ( clk $end
$var wire 11 a" expa_wire_s0 [10:0] $end
$var wire 11 b" expb_wire_s0 [10:0] $end
$var wire 1 c" isinf_a $end
$var wire 1 d" isinf_b $end
$var wire 1 e" isnan_a $end
$var wire 1 f" isnan_b $end
$var wire 1 g" issubnorm_a $end
$var wire 1 h" issubnorm_b $end
$var wire 1 i" iszero_a $end
$var wire 1 j" iszero_b $end
$var wire 52 k" mana_wire_s0 [51:0] $end
$var wire 52 l" manb_wire_s0 [51:0] $end
$var wire 1 + rst $end
$var wire 1 m" sign_a_wire_s0 $end
$var wire 1 n" sign_b_wire_s0 $end
$var wire 1 Z valid $end
$var wire 64 o" a [63:0] $end
$var reg 1 p" done $end
$var reg 11 q" exp_normalized_s3 [10:0] $end
$var reg 11 r" exp_result_s2 [10:0] $end
$var reg 11 s" expa_s0 [10:0] $end
$var reg 11 t" expb_s0 [10:0] $end
$var reg 12 u" expdiff_s1 [11:0] $end
$var reg 3 v" fex [2:0] $end
$var reg 52 w" final_mantissa [51:0] $end
$var reg 1 x" guard_bit $end
$var reg 64 y" input_a_s0 [63:0] $end
$var reg 64 z" input_b_s0 [63:0] $end
$var reg 58 {" man_normalized_s3 [57:0] $end
$var reg 58 |" man_result_s2 [57:0] $end
$var reg 55 }" mana_full [54:0] $end
$var reg 57 ~" mana_imm_s1 [56:0] $end
$var reg 52 !# mana_s0 [51:0] $end
$var reg 55 "# manb_full [54:0] $end
$var reg 57 ## manb_imm_s1 [56:0] $end
$var reg 52 $# manb_s0 [51:0] $end
$var reg 11 %# max_exp_s1 [10:0] $end
$var reg 1 &# round_bit $end
$var reg 1 '# round_up $end
$var reg 1 (# sign_a $end
$var reg 1 )# sign_a_s1 $end
$var reg 1 *# sign_b $end
$var reg 1 +# sign_b_s1 $end
$var reg 1 ,# sign_result_s2 $end
$var reg 1 -# sign_result_s3 $end
$var reg 1 .# special_case_s0 $end
$var reg 1 /# special_case_s1 $end
$var reg 1 0# special_case_s2 $end
$var reg 1 1# special_case_s3 $end
$var reg 3 2# special_fex_s0 [2:0] $end
$var reg 3 3# special_fex_s1 [2:0] $end
$var reg 3 4# special_fex_s2 [2:0] $end
$var reg 3 5# special_fex_s3 [2:0] $end
$var reg 64 6# special_result_s0 [63:0] $end
$var reg 64 7# special_result_s1 [63:0] $end
$var reg 64 8# special_result_s2 [63:0] $end
$var reg 64 9# special_result_s3 [63:0] $end
$var reg 1 :# sticky_bit $end
$var reg 64 ;# sum [63:0] $end
$var reg 1 <# valid_s1 $end
$var reg 1 =# valid_s2 $end
$var reg 1 ># valid_s3 $end
$var reg 1 ?# valid_s4 $end
$scope function count_leading_zeros $end
$var reg 1 @# found $end
$var reg 58 A# mantissa [57:0] $end
$var integer 32 B# j [31:0] $end
$upscope $end
$upscope $end
$scope module cmp32 $end
$var wire 32 C# a [31:0] $end
$var wire 32 D# b [31:0] $end
$var wire 1 ( clk $end
$var wire 1 E# nan_a $end
$var wire 1 F# nan_b $end
$var wire 1 + rst $end
$var wire 1 G# zero_a $end
$var wire 1 H# zero_b $end
$var wire 1 I# sign_b $end
$var wire 1 J# sign_a $end
$var wire 23 K# frac_b [22:0] $end
$var wire 23 L# frac_a [22:0] $end
$var wire 8 M# exp_b [7:0] $end
$var wire 8 N# exp_a [7:0] $end
$var reg 1 W a_eq_b $end
$var reg 1 U a_gt_b $end
$var reg 1 S a_lt_b $end
$upscope $end
$scope module cmp64 $end
$var wire 1 ( clk $end
$var wire 1 O# nan_a $end
$var wire 1 P# nan_b $end
$var wire 1 + rst $end
$var wire 1 Q# zero_a $end
$var wire 1 R# zero_b $end
$var wire 1 S# sign_b $end
$var wire 1 T# sign_a $end
$var wire 52 U# frac_b [51:0] $end
$var wire 52 V# frac_a [51:0] $end
$var wire 11 W# exp_b [10:0] $end
$var wire 11 X# exp_a [10:0] $end
$var wire 64 Y# b [63:0] $end
$var wire 64 Z# a [63:0] $end
$var reg 1 X a_eq_b $end
$var reg 1 V a_gt_b $end
$var reg 1 T a_lt_b $end
$upscope $end
$scope module decoder $end
$var wire 24 [# ins [23:0] $end
$var wire 1 G isAdd $end
$var wire 1 E isMul $end
$var wire 1 D isSub $end
$var wire 1 C iscmp $end
$var wire 1 B isld $end
$var wire 1 A issd $end
$var wire 5 \# rs2 [4:0] $end
$var wire 5 ]# rs1 [4:0] $end
$var wire 5 ^# rd [4:0] $end
$var wire 1 F isDouble $end
$var wire 9 _# imm [8:0] $end
$var wire 2 `# dest_sel [1:0] $end
$upscope $end
$scope module mul32 $end
$var wire 32 a# a [31:0] $end
$var wire 32 b# b [31:0] $end
$var wire 1 ( clk $end
$var wire 1 c# isinf_a $end
$var wire 1 d# isinf_b $end
$var wire 1 e# isnan_a $end
$var wire 1 f# isnan_b $end
$var wire 1 g# issubnorm_a $end
$var wire 1 h# issubnorm_b $end
$var wire 1 i# iszero_a $end
$var wire 1 j# iszero_b $end
$var wire 1 + rst $end
$var wire 1 k# special_case $end
$var wire 1 a valid $end
$var wire 24 l# manb_norm [23:0] $end
$var wire 24 m# manb_full [23:0] $end
$var wire 24 n# mana_norm [23:0] $end
$var wire 24 o# mana_full [23:0] $end
$var wire 6 p# lz_count_b [5:0] $end
$var wire 6 q# lz_count_a [5:0] $end
$var reg 10 r# adjusted_exp [9:0] $end
$var reg 1 s# done $end
$var reg 8 t# exp_final_s2 [7:0] $end
$var reg 10 u# exp_result_s1 [9:0] $end
$var reg 9 v# expa_s0 [8:0] $end
$var reg 9 w# expb_s0 [8:0] $end
$var reg 3 x# fex [2:0] $end
$var reg 3 y# fex_s2 [2:0] $end
$var reg 1 z# guard $end
$var reg 6 {# lz_count [5:0] $end
$var reg 23 |# man_final_s2 [22:0] $end
$var reg 48 }# man_product_s1 [47:0] $end
$var reg 23 ~# mana_s0 [22:0] $end
$var reg 23 !$ manb_s0 [22:0] $end
$var reg 48 "$ product [47:0] $end
$var reg 32 #$ result [31:0] $end
$var reg 1 $$ round_bit $end
$var reg 24 %$ rounded_man [23:0] $end
$var reg 6 &$ shift_amount [5:0] $end
$var reg 1 '$ sign_a_s0 $end
$var reg 1 ($ sign_b_s0 $end
$var reg 1 )$ sign_result_s1 $end
$var reg 1 *$ sign_result_s2 $end
$var reg 1 +$ special_case_s1 $end
$var reg 1 ,$ special_case_s2 $end
$var reg 3 -$ special_fex [2:0] $end
$var reg 32 .$ special_result [31:0] $end
$var reg 1 /$ sticky $end
$var reg 24 0$ subnormal_man [23:0] $end
$var reg 3 1$ temp_fex [2:0] $end
$var reg 1 2$ valid_s0 $end
$var reg 1 3$ valid_s1 $end
$var reg 1 4$ valid_s2 $end
$scope function count_leading_zeros $end
$var reg 24 5$ mantissa [23:0] $end
$var integer 32 6$ i [31:0] $end
$upscope $end
$scope function priority_encode_product $end
$var reg 48 7$ product [47:0] $end
$var integer 32 8$ i [31:0] $end
$upscope $end
$upscope $end
$scope module mul64 $end
$var wire 1 ( clk $end
$var wire 1 9$ isinf_a $end
$var wire 1 :$ isinf_b $end
$var wire 1 ;$ isnan_a $end
$var wire 1 <$ isnan_b $end
$var wire 1 =$ issubnorm_a $end
$var wire 1 >$ issubnorm_b $end
$var wire 1 ?$ iszero_a $end
$var wire 1 @$ iszero_b $end
$var wire 1 + rst $end
$var wire 1 A$ special_case $end
$var wire 1 b valid $end
$var wire 53 B$ manb_norm [52:0] $end
$var wire 53 C$ manb_full [52:0] $end
$var wire 53 D$ mana_norm [52:0] $end
$var wire 53 E$ mana_full [52:0] $end
$var wire 6 F$ lz_count_b [5:0] $end
$var wire 6 G$ lz_count_a [5:0] $end
$var wire 64 H$ b [63:0] $end
$var wire 64 I$ a [63:0] $end
$var reg 13 J$ adjusted_exp [12:0] $end
$var reg 1 K$ done $end
$var reg 11 L$ exp_final_s2 [10:0] $end
$var reg 13 M$ exp_result_s1 [12:0] $end
$var reg 12 N$ expa_s0 [11:0] $end
$var reg 12 O$ expb_s0 [11:0] $end
$var reg 3 P$ fex [2:0] $end
$var reg 3 Q$ fex_s2 [2:0] $end
$var reg 1 R$ guard $end
$var reg 6 S$ lz_count [5:0] $end
$var reg 52 T$ man_final_s2 [51:0] $end
$var reg 106 U$ man_product_s1 [105:0] $end
$var reg 52 V$ mana_s0 [51:0] $end
$var reg 52 W$ manb_s0 [51:0] $end
$var reg 106 X$ product [105:0] $end
$var reg 64 Y$ result [63:0] $end
$var reg 1 Z$ round_bit $end
$var reg 53 [$ rounded_man [52:0] $end
$var reg 6 \$ shift_amount [5:0] $end
$var reg 1 ]$ sign_a_s0 $end
$var reg 1 ^$ sign_b_s0 $end
$var reg 1 _$ sign_result_s1 $end
$var reg 1 `$ sign_result_s2 $end
$var reg 1 a$ special_case_s1 $end
$var reg 1 b$ special_case_s2 $end
$var reg 3 c$ special_fex [2:0] $end
$var reg 64 d$ special_result [63:0] $end
$var reg 1 e$ sticky $end
$var reg 53 f$ subnormal_man [52:0] $end
$var reg 3 g$ temp_fex [2:0] $end
$var reg 1 h$ valid_s0 $end
$var reg 1 i$ valid_s1 $end
$var reg 1 j$ valid_s2 $end
$scope function count_leading_zeros $end
$var reg 53 k$ mantissa [52:0] $end
$var integer 32 l$ i [31:0] $end
$upscope $end
$scope function priority_encode_product $end
$var reg 106 m$ product [105:0] $end
$var integer 32 n$ i [31:0] $end
$upscope $end
$upscope $end
$scope module rFile $end
$var wire 1 ( clk $end
$var wire 64 o$ data_in [63:0] $end
$var wire 64 p$ data_out1 [63:0] $end
$var wire 64 q$ data_out2 [63:0] $end
$var wire 5 r$ dest [4:0] $end
$var wire 1 + rst $end
$var wire 5 s$ sel1 [4:0] $end
$var wire 5 t$ sel2 [4:0] $end
$var integer 32 u$ i [31:0] $end
$upscope $end
$upscope $end
$scope task check_flags $end
$var reg 3 v$ expected [2:0] $end
$upscope $end
$scope task check_result $end
$var reg 64 w$ expected [63:0] $end
$upscope $end
$scope task encode_load $end
$var reg 9 x$ imm [8:0] $end
$var reg 5 y$ opcode [4:0] $end
$var reg 5 z$ rd [4:0] $end
$var reg 5 {$ rs1 [4:0] $end
$upscope $end
$scope task encode_r_type $end
$var reg 5 |$ opcode [4:0] $end
$var reg 5 }$ rd [4:0] $end
$var reg 5 ~$ rs1 [4:0] $end
$var reg 5 !% rs2 [4:0] $end
$upscope $end
$scope task encode_store $end
$var reg 9 "% imm [8:0] $end
$var reg 5 #% opcode [4:0] $end
$var reg 5 $% rs1 [4:0] $end
$var reg 5 %% rs2 [4:0] $end
$upscope $end
$scope task init_register $end
$var reg 1 &% is_double $end
$var reg 5 '% reg_addr [4:0] $end
$var reg 64 (% value [63:0] $end
$upscope $end
$upscope $end
$enddefinitions $end
#0
$dumpvars
bx (%
bx '%
x&%
bx %%
bx $%
bx #%
bx "%
bx !%
bx ~$
bx }$
bx |$
bx {$
bx z$
bx y$
bx x$
bx w$
bx v$
b100000 u$
b0 t$
b0 s$
b0 r$
b0 q$
b0 p$
b0 o$
bx n$
bx m$
b11111111111111111111111111111111 l$
b10000000000000000000000000000000000000000000000000000 k$
0j$
0i$
0h$
bx g$
bx f$
xe$
b0 d$
b0 c$
0b$
0a$
0`$
0_$
0^$
0]$
bx \$
bx [$
xZ$
b0 Y$
bx X$
b0 W$
b0 V$
b0 U$
b0 T$
bx S$
xR$
b0 Q$
b0 P$
b0 O$
b0 N$
b0 M$
b0 L$
0K$
bx J$
b0 I$
b0 H$
b0 G$
b0 F$
b10000000000000000000000000000000000000000000000000000 E$
b10000000000000000000000000000000000000000000000000000 D$
b10000000000000000000000000000000000000000000000000000 C$
b10000000000000000000000000000000000000000000000000000 B$
1A$
1@$
1?$
0>$
0=$
0<$
0;$
0:$
09$
bx 8$
bx 7$
b11111111111111111111111111111111 6$
b100000000000000000000000 5$
04$
03$
02$
bx 1$
bx 0$
x/$
b0 .$
b0 -$
0,$
0+$
0*$
0)$
0($
0'$
bx &$
bx %$
x$$
b0 #$
bx "$
b0 !$
b0 ~#
b0 }#
b0 |#
bx {#
xz#
b0 y#
b0 x#
b0 w#
b0 v#
b0 u#
b0 t#
0s#
bx r#
b0 q#
b0 p#
b100000000000000000000000 o#
b100000000000000000000000 n#
b100000000000000000000000 m#
b100000000000000000000000 l#
1k#
1j#
1i#
0h#
0g#
0f#
0e#
0d#
0c#
b0 b#
b0 a#
b1 `#
b0 _#
b0 ^#
b0 ]#
b0 \#
b0 [#
b0 Z#
b0 Y#
b0 X#
b0 W#
b0 V#
b0 U#
0T#
0S#
1R#
1Q#
0P#
0O#
b0 N#
b0 M#
b0 L#
b0 K#
0J#
0I#
1H#
1G#
0F#
0E#
b0 D#
b0 C#
bx B#
bx A#
x@#
0?#
0>#
0=#
0<#
b0 ;#
x:#
b0 9#
b0 8#
b0 7#
b0 6#
b0 5#
b0 4#
b0 3#
b0 2#
01#
00#
0/#
0.#
0-#
0,#
0+#
0*#
0)#
0(#
x'#
x&#
b0 %#
b0 $#
b0 ##
bx "#
b0 !#
b0 ~"
bx }"
b0 |"
b0 {"
b0 z"
b0 y"
xx"
bx w"
b0 v"
b0 u"
b0 t"
b0 s"
b0 r"
b0 q"
0p"
b0 o"
0n"
0m"
b0 l"
b0 k"
1j"
1i"
0h"
0g"
0f"
0e"
0d"
0c"
b0 b"
b0 a"
b0 `"
bx _"
bx ^"
x]"
0\"
0["
0Z"
0Y"
b0 X"
xW"
b0 V"
b0 U"
b0 T"
b0 S"
b0 R"
b0 Q"
b0 P"
b0 O"
0N"
0M"
0L"
0K"
0J"
0I"
0H"
0G"
0F"
0E"
xD"
xC"
b0 B"
b0 A"
b0 @"
bx ?"
b0 >"
b0 ="
bx <"
b0 ;"
b0 :"
b0 9"
b0 8"
x7"
bx 6"
b0 5"
b0 4"
b0 3"
b0 2"
b0 1"
b0 0"
0/"
0."
0-"
b0 ,"
b0 +"
1*"
1)"
0("
0'"
0&"
0%"
0$"
0#"
b0 ""
b0 !"
b0 ~
b0 }
b0 |
b0 {
0z
b0 y
b0 x
0w
0v
0u
0t
0s
0r
0q
0p
0o
0n
0m
0l
0k
0j
0i
b0 h
b0 g
b0 f
b0 e
b0 d
0c
0b
0a
0`
0_
b0 ^
b0 ]
b0 \
0[
0Z
0Y
0X
0W
0V
0U
0T
0S
b0 R
b0 Q
b0 P
b0 O
b0 N
b1 M
b0 L
b0 K
b0 J
b0 I
b0 H
0G
0F
0E
0D
0C
0B
0A
b0 @
b0 ?
b0 >
b0 =
b0 <
0;
b0 :
09
b0 8
b0 7
b0 6
b0 5
04
b0 3
b0 2
01
b0 0
b0 /
b0 .
b0 -
b0 ,
1+
b0 *
b0 )
0(
b0 '
b0 &
b0 %
b0 $
b0 #
b0 "
b0 !
$end
#7000
b100000 u$
1(
#14000
0(
#20000
0+
#21000
1K"
b10000000000000000000000000 ?"
b10000000000000000000000000 <"
bx00 ="
bx00 @"
1.#
b1000000000000000000000000000000000000000000000000000000 "#
b1000000000000000000000000000000000000000000000000000000 }"
bx00 ~"
bx00 ##
1+$
1a$
1W
1X
1(
#28000
0(
#35000
1b$
1,$
bx |"
b100000000000000000000000000000000000000000000000000000000 ~"
b100000000000000000000000000000000000000000000000000000000 ##
1/#
bx ;"
b1000000000000000000000000000 ="
b1000000000000000000000000000 @"
1L"
1(
#40000
b100000000 H
b100000000 _#
0G
1B
b10 M
b10 `#
b1 N
b1 ^#
b1 r$
b10000 7
b10000 \#
b10000 t$
b1000000000000000000000000000000 O
b1000000000000000000000000000000 0
b11000000010000000000001 *
b11000000010000000000001 3
b11000000010000000000001 [#
b1 z$
b100000000 x$
b0 {$
b1100 y$
b1000000000000000000000000000000 )
#42000
0(
#49000
b100000000 &
b1000000000000000000000000000000 #
b1000000000000000000000000000000 =
b10000000000000000000000000000 ;"
1M"
bx :"
b1000000000000000000000000000000000000000000000000000000000 |"
10#
bx {"
b1000000000000000000000000000000 2
b1000000000000000000000000000000 o$
b1000000000000000000000000000000 y
b10000000000000000000000000 '
b10000000000000000000000000 P
b100000000 \
1(
#56000
0(
#63000
0G#
0Q#
b10000000 N#
b1000000000000000000000000000000 V#
b1000000000000000000000000000000 C#
b1000000000000000000000000000000 a#
b1000000000000000000000000000000 }
b1 q"
b100000000000000000000000000000000000000000000000000000000 {"
11#
b1 0"
b1000000000000000000000000000 :"
1N"
b1000000000000000000000000000000 <
b1000000000000000000000000000000 o"
b1000000000000000000000000000000 Z#
b1000000000000000000000000000000 I$
b1000000000000000000000000000000 p$
b1010000 H
b1010000 _#
b0 M
b0 `#
0B
1A
b10000 N
b10000 ^#
b10000 r$
b1 8
b1 ]#
b1 s$
b0 7
b0 \#
b0 t$
b10100000100000001010000 *
b10100000100000001010000 3
b10100000100000001010000 [#
b1010000 "%
b0 %%
b1 $%
b1010 #%
1(
#70000
0(
#77000
b1010000 "
b1000000000000000000000000000000 !
b1000000000000000000000000000000 5
b1000000000000000000000000000000 |
b10000000000101000000000000 '
b10000000000101000000000000 P
b1010000 {
0W
1U
0X
1V
1(
#84000
0(
#91000
1G#
1Q#
b0 N#
b10 M
b10 `#
1B
0A
b0 H
b0 _#
b0 V#
b0 C#
b0 a#
b0 }
1F
b10 N
b10 ^#
b10 r$
b0 <
b0 o"
b0 Z#
b0 I$
b0 p$
b0 8
b0 ]#
b0 s$
b0 0
b100000000001000000000000000000000000000000000000000000000000000 O
b1000000000010000000000000000000 /
b111000000000000000000010 *
b111000000000000000000010 3
b111000000000000000000010 [#
b10 z$
b0 x$
b11100 y$
b100000000001000000000000000000000000000000000000000000000000000 )
b1 .
b1 -
1(
#98000
0(
#105000
b0 &
b0 =
b100000000001000000000000000000000000000000000000000000000000000 #
b1000000000010000000000000000000 >
b100 x
b100000000001000000000000000000000000000000000000000000000000000 2
b100000000001000000000000000000000000000000000000000000000000000 o$
b100000000001000000000000000000000000000000000000000000000000000 y
b101000000000000 '
b101000000000000 P
b0 \
1[
1W
0U
1X
0V
1(
#112000
0(
#119000
b10000000000 X#
1G#
b1100000 H
b1100000 _#
0Q#
b0 N#
b0 M
b0 `#
0B
1A
b1000000000000000000000000000000000000000000000000000 V#
b0 C#
b0 a#
b0 }
b0 N
b0 ^#
b0 r$
b100000000001000000000000000000000000000000000000000000000000000 <
b100000000001000000000000000000000000000000000000000000000000000 o"
b100000000001000000000000000000000000000000000000000000000000000 Z#
b100000000001000000000000000000000000000000000000000000000000000 I$
b100000000001000000000000000000000000000000000000000000000000000 p$
1;
b10 8
b10 ]#
b10 s$
b110100001000000001100000 *
b110100001000000001100000 3
b110100001000000001100000 [#
b1100000 "%
b10 $%
b11010 #%
1(
#126000
0(
#133000
b1100000 "
b0 5
b100000000001000000000000000000000000000000000000000000000000000 !
b1000000000010000000000000000000 6
b100000000001000000000000000000000000000000000000000000000000000 |
b110000000000000 '
b110000000000000 P
b1100000 {
0X
1V
1(
#140000
0(
#147000
1Q#
b10 M
b10 `#
1B
0A
b0 H
b0 _#
b0 V#
b0 X#
0F
b1 N
b1 ^#
b1 r$
b0 <
b0 o"
b0 Z#
b0 I$
b0 p$
0;
b0 8
b0 ]#
b0 s$
b1000000000000000000000000000000 0
b1000000000000000000000000000000 O
b0 /
b11000000000000000000001 *
b11000000000000000000001 3
b11000000000000000000001 [#
b1 z$
b1100 y$
b1000000000000000000000000000000 )
0&%
b1000000000000000000000000000000 (%
b1 '%
b10 .
b10 -
1(
#154000
0(
#161000
b1000000000000000000000000000000 =
b1000000000000000000000000000000 #
b0 >
b1000000000000000000000000000000 2
b1000000000000000000000000000000 o$
b1000000000000000000000000000000 y
0[
1X
0V
1(
#168000
0(
#175000
1(
#182000
0(
#189000
b10 N
b10 ^#
b10 r$
b111111100000000000000000000000 O
b111111100000000000000000000000 0
b11000000000000000000010 *
b11000000000000000000010 3
b11000000000000000000010 [#
b10 z$
b111111100000000000000000000000 )
b111111100000000000000000000000 (%
b10 '%
1(
#196000
0(
#203000
b111111100000000000000000000000 #
b111111100000000000000000000000 =
b0 x
b111111100000000000000000000000 2
b111111100000000000000000000000 o$
b111111100000000000000000000000 y
1(
#210000
0(
#217000
1(
#224000
0(
#231000
1F
b11 N
b11 ^#
b11 r$
b0 0
b100000000000000000000000000000000000000000000000000000000000000 O
b1000000000000000000000000000000 /
b111000000000000000000011 *
b111000000000000000000011 3
b111000000000000000000011 [#
b11 z$
b11100 y$
b100000000000000000000000000000000000000000000000000000000000000 )
1&%
b100000000000000000000000000000000000000000000000000000000000000 (%
b11 '%
1(
#238000
0(
#245000
b0 =
b100000000000000000000000000000000000000000000000000000000000000 #
b1000000000000000000000000000000 >
b1000 x
b100000000000000000000000000000000000000000000000000000000000000 2
b100000000000000000000000000000000000000000000000000000000000000 o$
b100000000000000000000000000000000000000000000000000000000000000 y
1[
1(
#252000
0(
#259000
1(
#266000
0(
#273000
b100 N
b100 ^#
b100 r$
b11111111110000000000000000000000000000000000000000000000000000 O
b111111111100000000000000000000 /
b111000000000000000000100 *
b111000000000000000000100 3
b111000000000000000000100 [#
b100 z$
b11111111110000000000000000000000000000000000000000000000000000 )
b11111111110000000000000000000000000000000000000000000000000000 (%
b100 '%
1(
#280000
0(
#287000
b11111111110000000000000000000000000000000000000000000000000000 #
b111111111100000000000000000000 >
b11000 x
b11111111110000000000000000000000000000000000000000000000000000 2
b11111111110000000000000000000000000000000000000000000000000000 o$
b11111111110000000000000000000000000000000000000000000000000000 y
1(
#294000
0(
#301000
1(
#308000
0(
#315000
0F
b101 N
b101 ^#
b101 r$
b111111000000000000000000000000 0
b111111000000000000000000000000 O
b0 /
b11000000000000000000101 *
b11000000000000000000101 3
b11000000000000000000101 [#
b101 z$
b1100 y$
b111111000000000000000000000000 )
0&%
b111111000000000000000000000000 (%
b101 '%
1(
#322000
0(
#329000
b111111000000000000000000000000 =
b111111000000000000000000000000 #
b0 >
b111111000000000000000000000000 2
b111111000000000000000000000000 o$
b111111000000000000000000000000 y
0[
1(
#336000
0(
#343000
1(
#350000
0(
#357000
1F
b110 N
b110 ^#
b110 r$
b0 0
b11111111100000000000000000000000000000000000000000000000000000 O
b111111111000000000000000000000 /
b111000000000000000000110 *
b111000000000000000000110 3
b111000000000000000000110 [#
b110 z$
b11100 y$
b11111111100000000000000000000000000000000000000000000000000000 )
1&%
b11111111100000000000000000000000000000000000000000000000000000 (%
b110 '%
1(
#364000
0(
#371000
b0 =
b11111111100000000000000000000000000000000000000000000000000000 #
b111111111000000000000000000000 >
b1011000 x
b11111111100000000000000000000000000000000000000000000000000000 2
b11111111100000000000000000000000000000000000000000000000000000 o$
b11111111100000000000000000000000000000000000000000000000000000 y
1[
1(
#378000
0(
#385000
1(
#392000
0(
